1 10 20
100 200 125
201 210 89
900 1000 174
1 1000000 525
1 1 1
7350 90845 351
77 777 171
99 99 26
100000 555999 470
37 73 116
500 1000 179
200 300 128
456 724 171
47385 85983 351
6374 8888 257
84357 132481 354
1 20 21
1 30 112
1 40 112
1 50 112
1 60 113
1 70 113
1 80 116
1 90 116
1 100 119
2 4 8
4 8 17
8 16 20
16 32 112
32 64 113
64 128 119
128 256 128
256 512 144
512 1024 179
200 300 128
300 400 144
400 500 142
500 600 137
600 700 145
700 800 171
800 900 179
1000 2000 182
2000 3000 217
3000 4000 238
4000 5000 215
5000 6000 236
6000 7000 262
7000 8000 252
8000 9000 247
9000 10000 260
10000 11000 268
11000 12000 250
12000 13000 263
13000 14000 276
14000 15000 271
15000 16000 271
16000 17000 266
17000 18000 279
18000 19000 261
19000 20000 274
50000 60000 340
60000 70000 335
70000 80000 351
80000 90000 333
90000 100000 333
20000 30000 308
30000 40000 324
40000 50000 314
100000 110000 354
110000 120000 349
120000 130000 344
130000 140000 344
140000 150000 375
150000 160000 383
160000 170000 370
170000 180000 347
180000 190000 365
190000 200000 360
200000 210000 373
210000 220000 386
220000 230000 368
230000 240000 443
240000 250000 368
250000 260000 363
260000 270000 407
270000 280000 407
280000 290000 389
290000 300000 371
300000 310000 371
310000 320000 384
320000 330000 384
330000 340000 366
340000 350000 441
350000 360000 379
360000 370000 410
370000 380000 423
380000 390000 436
390000 400000 405
400000 500000 449
500000 600000 470
600000 700000 509
700000 800000 504
800000 900000 525
900000 1000000 507
66 666 145
55 555 144
88 888 179
999 999999 525
234567 789102 509
2468 36912 324
5732 57389 340
2309 48935 324
589324 678142 509
4444 444444 449
